top_tb.vcd
$date
	Wed Oct 15 19:27:38 2025
$end
$version
	Icarus Verilog
$end
$timescale
	1ns
$end
$scope module top_tb $end
$var wire 32 ! debug [31:0] $end
$var reg 1 " clk $end
$var reg 1 # rst $end
$scope module dut $end
$var wire 1 " clk $end
$var wire 32 $ debug [31:0] $end
$var wire 1 # rst $end
$var wire 1 % take $end
$var wire 32 & sel_alu_src_b [31:0] $end
$var wire 32 ' sel_alu_src_a [31:0] $end
$var wire 5 ( rs2_addr [4:0] $end
$var wire 32 ) rs2 [31:0] $end
$var wire 5 * rs1_addr [4:0] $end
$var wire 32 + rs1 [31:0] $end
$var wire 2 , result_mux [1:0] $end
$var wire 1 - reg_write $end
$var wire 5 . rd_addr [4:0] $end
$var wire 32 / rd [31:0] $end
$var wire 7 0 opcode [6:0] $end
$var wire 1 1 mem_write $end
$var wire 32 2 inst [31:0] $end
$var wire 32 3 immediate [31:0] $end
$var wire 32 4 data [31:0] $end
$var wire 3 5 branch_op [2:0] $end
$var wire 1 6 branch $end
$var wire 1 7 alu_src_b $end
$var wire 1 8 alu_src_a $end
$var wire 6 9 alu_op [5:0] $end
$var reg 32 : pc [31:0] $end
$var reg 32 ; result [31:0] $end
$scope module alu $end
$var wire 32 < i_a [31:0] $end
$var wire 32 = i_b [31:0] $end
$var wire 6 > i_alu_op [5:0] $end
$var reg 32 ? o_c [31:0] $end
$upscope $end
$scope module b $end
$var wire 3 @ i_branch_op [2:0] $end
$var wire 1 6 i_branch $end
$var wire 32 A i_b [31:0] $end
$var wire 32 B i_a [31:0] $end
$var reg 1 % o_take $end
$upscope $end
$scope module dec $end
$var wire 7 C o_opcode [6:0] $end
$var wire 7 D opcode [6:0] $end
$var wire 5 E o_rs2_addr [4:0] $end
$var wire 5 F o_rs1_addr [4:0] $end
$var wire 5 G o_rd_addr [4:0] $end
$var wire 32 H i_inst [31:0] $end
$var wire 7 I funct_7 [6:0] $end
$var wire 3 J funct_3 [2:0] $end
$var reg 6 K o_alu_op [5:0] $end
$var reg 1 8 o_alu_src_a $end
$var reg 1 7 o_alu_src_b $end
$var reg 1 6 o_branch $end
$var reg 3 L o_branch_op [2:0] $end
$var reg 1 1 o_mem_write $end
$var reg 1 - o_reg_write $end
$var reg 2 M o_result_mux [1:0] $end
$upscope $end
$scope module dmem $end
$var wire 10 N i_addr [9:0] $end
$var wire 1 " i_clk $end
$var wire 1 1 i_we $end
$var wire 32 O o_data [31:0] $end
$var wire 32 P i_data [31:0] $end
$var parameter 32 Q MEM_SIZE $end
$scope begin $ivl_for_loop0 $end
$var integer 32 R i [31:0] $end
$upscope $end
$upscope $end
$scope module imem $end
$var wire 10 S i_addr [9:0] $end
$var parameter 32 T MEM_SIZE $end
$var reg 32 U o_inst [31:0] $end
$upscope $end
$scope module reg_file $end
$var wire 1 " i_clk $end
$var wire 32 V i_rd [31:0] $end
$var wire 5 W i_rd_addr [4:0] $end
$var wire 5 X i_rs1_addr [4:0] $end
$var wire 5 Y i_rs2_addr [4:0] $end
$var wire 1 # i_rst $end
$var wire 1 - i_we $end
$var wire 32 Z o_rs1 [31:0] $end
$var wire 32 [ o_rs2 [31:0] $end
$scope begin $ivl_for_loop1 $end
$var integer 32 \ i [31:0] $end
$upscope $end
$scope begin $ivl_for_loop2 $end
$var integer 32 ] i [31:0] $end
$upscope $end
$upscope $end
$scope module sign_ext $end
$var wire 32 ^ i_inst [31:0] $end
$var wire 7 _ i_opcode [6:0] $end
$var reg 32 ` o_immediate_extended [31:0] $end
$upscope $end
$upscope $end
$upscope $end
$enddefinitions $end
$comment Show the parameter values. $end
$dumpall
b10000000000 T
b10000000000 Q
$end
#0
$dumpvars
b11110000000000000000000000000000 `
b110111 _
b11110000000000000000000100110111 ^
bx ]
b100000 \
b0 [
b0 Z
b0 Y
b0 X
b10 W
b11110000000000000000000000000000 V
b11110000000000000000000100110111 U
b0 S
b10000000000 R
b0 P
b1101100011011000110010101001000 O
b0 N
b0 M
b0 L
b11001 K
b0 J
b1111000 I
b11110000000000000000000100110111 H
b10 G
b0 F
b0 E
b110111 D
b110111 C
b0 B
b0 A
b0 @
b11110000000000000000000000000000 ?
b11001 >
b11110000000000000000000000000000 =
b0 <
b11110000000000000000000000000000 ;
b0 :
b11001 9
08
17
06
b0 5
b1101100011011000110010101001000 4
b11110000000000000000000000000000 3
b11110000000000000000000100110111 2
01
b110111 0
b11110000000000000000000000000000 /
b10 .
1-
b0 ,
b0 +
b0 *
b0 )
b0 (
b0 '
b11110000000000000000000000000000 &
0%
bx0000000000000000000000000000 $
1#
0"
bx0000000000000000000000000000 !
$end
#5
bx0000000000000000000000000000 !
bx0000000000000000000000000000 $
b11110000000000000000000000000000 ;
b11110000000000000000000000000000 V
b11110000000000000000000000000000 '
b11110000000000000000000000000000 <
b11110000000000000000000000000000 /
b11110000000000000000000000000000 ?
b11110000000000000000000000000000 +
b11110000000000000000000000000000 B
b11110000000000000000000000000000 Z
b10 *
b10 F
b10 X
b0 &
b0 =
b10011 0
b10011 C
b10011 _
b10011 D
b0 I
1-
17
b0 3
b0 `
b10000000100010011 2
b10000000100010011 H
b10000000100010011 U
b10000000100010011 ^
b100 S
b100 :
0#
1"
#10
0"
#15
b0 4
b0 O
b1001011000 N
b1000 '
b1000 <
b0xx00 !
b0xx00 $
b1100 ;
b1100 V
1%
b1001011000 /
b1001011000 ?
b0 +
b0 B
b0 Z
b0 *
b0 F
b0 X
b10 5
b10 @
b10 L
18
b1 ,
b1 M
16
b1001010000 &
b1001010000 =
b1 .
b1 G
b1 W
b10000 (
b10000 E
b10000 Y
b1101111 0
b1101111 C
b1101111 _
b1101111 D
b10010 I
1-
17
b1001010000 3
b1001010000 `
b100101000000000000000011101111 2
b100101000000000000000011101111 H
b100101000000000000000011101111 U
b100101000000000000000011101111 ^
b1000 S
b1000 :
1"
#20
0"
#25
b11110000000000000000000000000000 +
b11110000000000000000000000000000 B
b11110000000000000000000000000000 Z
b10 *
b10 F
b10 X
0%
b11111111111111111111111111100000 &
b11111111111111111111111111100000 =
b10 .
b10 G
b10 W
b0 (
b0 E
b0 Y
b10011 0
b10011 C
b10011 _
b10011 D
b1111111 I
1-
17
08
b0 5
b0 @
b0 L
b0 ,
b0 M
06
b11111111111111111111111111100000 3
b11111111111111111111111111100000 `
b11111110000000010000000100010011 2
b11111110000000010000000100010011 H
b11111110000000010000000100010011 U
b11111110000000010000000100010011 ^
b1111100000 N
b11101111111111111111111111100000 /
b11101111111111111111111111100000 ?
bx0xxxxxxxxxxxxxxxxxxxxxxx00000 !
bx0xxxxxxxxxxxxxxxxxxxxxxx00000 $
b11101111111111111111111111100000 ;
b11101111111111111111111111100000 V
b11110000000000000000000000000000 '
b11110000000000000000000000000000 <
b1001011000 S
b1001011000 :
1"
#30
0"
#35
11
b11100 &
b11100 =
b11100 .
b11100 G
b11100 W
b1100 )
b1100 A
b1100 P
b1100 [
b1 (
b1 E
b1 Y
b100011 0
b100011 C
b100011 _
b100011 D
b10 J
b0 I
0-
17
b11100 3
b11100 `
b100010010111000100011 2
b100010010111000100011 H
b100010010111000100011 U
b100010010111000100011 ^
b1111111100 N
bx0xxxxxxxxxxxxxxxxxxxxxxxxxx00 !
bx0xxxxxxxxxxxxxxxxxxxxxxxxxx00 $
b11101111111111111111111111111100 ;
b11101111111111111111111111111100 V
b11101111111111111111111111111100 /
b11101111111111111111111111111100 ?
b11101111111111111111111111100000 '
b11101111111111111111111111100000 <
b1001011100 S
b11101111111111111111111111100000 +
b11101111111111111111111111100000 B
b11101111111111111111111111100000 Z
b1001011100 :
1"
#40
0"
#45
b1111111000 N
bx0xxxxxxxxxxxxxxxxxxxxxxxxx000 !
bx0xxxxxxxxxxxxxxxxxxxxxxxxx000 $
b11101111111111111111111111111000 ;
b11101111111111111111111111111000 V
b11101111111111111111111111111000 /
b11101111111111111111111111111000 ?
b11000 &
b11000 =
b11000 .
b11000 G
b11000 W
b0 )
b0 A
b0 P
b0 [
b1000 (
b1000 E
b1000 Y
17
11
b11000 3
b11000 `
b100000010010110000100011 2
b100000010010110000100011 H
b100000010010110000100011 U
b100000010010110000100011 ^
b1001100000 S
b0 4
b0 O
b1001100000 :
1"
#50
0"
#55
b1101100011011000110010101001000 4
b1101100011011000110010101001000 O
b0 N
bx0000000000000000000000000000 !
bx0000000000000000000000000000 $
b11110000000000000000000000000000 ;
b11110000000000000000000000000000 V
b11110000000000000000000000000000 /
b11110000000000000000000000000000 ?
1-
b100000 &
b100000 =
b1000 .
b1000 G
b1000 W
b0 (
b0 E
b0 Y
b10011 0
b10011 C
b10011 _
b10011 D
b0 J
b1 I
17
01
b100000 3
b100000 `
b10000000010000010000010011 2
b10000000010000010000010011 H
b10000000010000010000010011 U
b10000000010000010000010011 ^
b1001100100 S
b1001100100 :
1"
#60
0"
#65
b1101111011101110010000001101111 4
b1101111011101110010000001101111 O
b101 N
b0x0x !
b0x0x $
b101 ;
b101 V
b0 '
b0 <
b101 /
b101 ?
b0 +
b0 B
b0 Z
b0 *
b0 F
b0 X
b101 &
b101 =
b1010 .
b1010 G
b1010 W
b101 (
b101 E
b101 Y
b0 I
1-
17
b101 3
b101 `
b10100000000010100010011 2
b10100000000010100010011 H
b10100000000010100010011 U
b10100000000010100010011 ^
b1001101000 S
b1001101000 :
1"
#70
0"
#75
b0 4
b0 O
b111010000 N
b1001101100 '
b1001101100 <
b0x00xxx0000 !
b0x00xxx0000 $
b1001110000 ;
b1001110000 V
1%
b111010000 /
b111010000 ?
b11111 *
b11111 F
b11111 X
b10 5
b10 @
b10 L
18
b1 ,
b1 M
16
b11111111111111111111111101100100 &
b11111111111111111111111101100100 =
b1 .
b1 G
b1 W
b1101111 0
b1101111 C
b1101111 _
b1101111 D
b111 J
b1111011 I
1-
17
b11111111111111111111111101100100 3
b11111111111111111111111101100100 `
b11110110010111111111000011101111 2
b11110110010111111111000011101111 H
b11110110010111111111000011101111 U
b11110110010111111111000011101111 ^
b1001101100 S
b1001101100 :
1"
#80
0"
#85
b11101111111111111111111111100000 +
b11101111111111111111111111100000 B
b11101111111111111111111111100000 Z
b10 *
b10 F
b10 X
0%
b11111111111111111111111111010000 &
b11111111111111111111111111010000 =
b10 .
b10 G
b10 W
b10000 (
b10000 E
b10000 Y
b10011 0
b10011 C
b10011 _
b10011 D
b0 J
b1111110 I
1-
17
08
b0 5
b0 @
b0 L
b0 ,
b0 M
06
b11111111111111111111111111010000 3
b11111111111111111111111111010000 `
b11111101000000010000000100010011 2
b11111101000000010000000100010011 H
b11111101000000010000000100010011 U
b11111101000000010000000100010011 ^
b1110110000 N
b11101111111111111111111110110000 /
b11101111111111111111111110110000 ?
bx0xxxxxxxxxxxxxxxxxxxxx0xx0000 !
bx0xxxxxxxxxxxxxxxxxxxxx0xx0000 $
b11101111111111111111111110110000 ;
b11101111111111111111111110110000 V
b11101111111111111111111111100000 '
b11101111111111111111111111100000 <
b111010000 S
b111010000 :
1"
#90
0"
#95
11
b101100 &
b101100 =
b1100 .
b1100 G
b1100 W
b11110000000000000000000000000000 )
b11110000000000000000000000000000 A
b11110000000000000000000000000000 P
b11110000000000000000000000000000 [
b1000 (
b1000 E
b1000 Y
b100011 0
b100011 C
b100011 _
b100011 D
b10 J
b1 I
0-
17
b101100 3
b101100 `
b10100000010010011000100011 2
b10100000010010011000100011 H
b10100000010010011000100011 U
b10100000010010011000100011 ^
b1111011100 N
bx0xxxxxxxxxxxxxxxxxxxxxx0xxx00 !
bx0xxxxxxxxxxxxxxxxxxxxxx0xxx00 $
b11101111111111111111111111011100 ;
b11101111111111111111111111011100 V
b11101111111111111111111111011100 /
b11101111111111111111111111011100 ?
b11101111111111111111111110110000 '
b11101111111111111111111110110000 <
b111010100 S
b11101111111111111111111110110000 +
b11101111111111111111111110110000 B
b11101111111111111111111110110000 Z
b111010100 :
1"
#100
0"
#105
b1111100000 N
bx0xxxxxxxxxxxxxxxxxxxxxxx00000 !
bx0xxxxxxxxxxxxxxxxxxxxxxx00000 $
b11101111111111111111111111100000 ;
b11101111111111111111111111100000 V
b11101111111111111111111111100000 /
b11101111111111111111111111100000 ?
1-
b110000 &
b110000 =
b1000 .
b1000 G
b1000 W
b0 )
b0 A
b0 P
b0 [
b10000 (
b10000 E
b10000 Y
b10011 0
b10011 C
b10011 _
b10011 D
b0 J
17
01
b110000 3
b110000 `
b11000000010000010000010011 2
b11000000010000010000010011 H
b11000000010000010000010011 U
b11000000010000010000010011 ^
b111011000 S
b0 4
b0 O
b111011000 :
1"
#110
0"
#115
b1110111100 N
bx0xxxxxxxxxxxxxxxxxxxxx0xxxx00 !
bx0xxxxxxxxxxxxxxxxxxxxx0xxxx00 $
b11101111111111111111111110111100 ;
b11101111111111111111111110111100 V
b11101111111111111111111111100000 '
b11101111111111111111111111100000 <
b11101111111111111111111110111100 /
b11101111111111111111111110111100 ?
b11101111111111111111111111100000 +
b11101111111111111111111111100000 B
b11101111111111111111111111100000 Z
b1000 *
b1000 F
b1000 X
11
b11111111111111111111111111011100 &
b11111111111111111111111111011100 =
b11100 .
b11100 G
b11100 W
b101 )
b101 A
b101 P
b101 [
b1010 (
b1010 E
b1010 Y
b100011 0
b100011 C
b100011 _
b100011 D
b10 J
b1111110 I
0-
17
b11111111111111111111111111011100 3
b11111111111111111111111111011100 `
b11111100101001000010111000100011 2
b11111100101001000010111000100011 H
b11111100101001000010111000100011 U
b11111100101001000010111000100011 ^
b111011100 S
b111011100 :
1"
#120
0"
#125
b1110111100 N
b0x0x !
b0x0x $
b101 ;
b101 V
b11101111111111111111111110111100 /
b11101111111111111111111110111100 ?
1-
b10 ,
b10 M
b11111111111111111111111111011100 &
b11111111111111111111111111011100 =
b1111 .
b1111 G
b1111 W
b0 )
b0 A
b0 P
b0 [
b11100 (
b11100 E
b11100 Y
b11 0
b11 C
b11 _
b11 D
17
01
b11111111111111111111111111011100 3
b11111111111111111111111111011100 `
b11111101110001000010011110000011 2
b11111101110001000010011110000011 H
b11111101110001000010011110000011 U
b11111101110001000010011110000011 ^
b111100000 S
b101 4
b101 O
b111100000 :
1"
#130
0"
#135
b0 4
b0 O
b1001000000 N
b111100100 '
b111100100 <
b0x00x000000 !
b0x00x000000 $
b1001000000 ;
b1001000000 V
b1001000000 /
b1001000000 ?
b0 +
b0 B
b0 Z
b0 *
b0 F
b0 X
b101 5
b101 @
b101 L
18
16
b1011100 &
b1011100 =
b11100 .
b11100 G
b11100 W
b101 )
b101 A
b101 P
b101 [
b1111 (
b1111 E
b1111 Y
b1100011 0
b1100011 C
b1100011 _
b1100011 D
b101 J
b10 I
0-
17
b0 ,
b0 M
b1011100 3
b1011100 `
b100111100000101111001100011 2
b100111100000101111001100011 H
b100111100000101111001100011 U
b100111100000101111001100011 ^
b111100100 S
b111100100 :
1"
#140
0"
#145
b11101111111111111111111111100000 +
b11101111111111111111111111100000 B
b11101111111111111111111111100000 Z
b1000 *
b1000 F
b1000 X
11
0%
b11111111111111111111111111101100 &
b11111111111111111111111111101100 =
b1100 .
b1100 G
b1100 W
b0 )
b0 A
b0 P
b0 [
b0 (
b0 E
b0 Y
b100011 0
b100011 C
b100011 _
b100011 D
b10 J
b1111111 I
17
08
b0 5
b0 @
b0 L
06
b11111111111111111111111111101100 3
b11111111111111111111111111101100 `
b11111110000001000010011000100011 2
b11111110000001000010011000100011 H
b11111110000001000010011000100011 U
b11111110000001000010011000100011 ^
b1111001100 N
bx0xxxxxxxxxxxxxxxxxxxxxx00xx00 !
bx0xxxxxxxxxxxxxxxxxxxxxx00xx00 $
b11101111111111111111111111001100 ;
b11101111111111111111111111001100 V
b11101111111111111111111111001100 /
b11101111111111111111111111001100 ?
b11101111111111111111111111100000 '
b11101111111111111111111111100000 <
b111101000 S
b111101000 :
1"
#150
0"
#155
b1101100011011000110010101001000 4
b1101100011011000110010101001000 O
b1 N
b0x !
b0x $
b1 ;
b1 V
b0 '
b0 <
b1 /
b1 ?
b0 +
b0 B
b0 Z
b0 *
b0 F
b0 X
1-
b1 &
b1 =
b1111 .
b1111 G
b1111 W
b1001110000 )
b1001110000 A
b1001110000 P
b1001110000 [
b1 (
b1 E
b1 Y
b10011 0
b10011 C
b10011 _
b10011 D
b0 J
b0 I
17
01
b1 3
b1 `
b100000000011110010011 2
b100000000011110010011 H
b100000000011110010011 U
b100000000011110010011 ^
b111101100 S
b111101100 :
1"
#160
0"
#165
b0 4
b0 O
b1111001000 N
bx0xxxxxxxxxxxxxxxxxxxxxx00x000 !
bx0xxxxxxxxxxxxxxxxxxxxxx00x000 $
b11101111111111111111111111001000 ;
b11101111111111111111111111001000 V
b11101111111111111111111111100000 '
b11101111111111111111111111100000 <
b11101111111111111111111111001000 /
b11101111111111111111111111001000 ?
b11101111111111111111111111100000 +
b11101111111111111111111111100000 B
b11101111111111111111111111100000 Z
b1000 *
b1000 F
b1000 X
11
b11111111111111111111111111101000 &
b11111111111111111111111111101000 =
b1000 .
b1000 G
b1000 W
b1 )
b1 A
b1 P
b1 [
b1111 (
b1111 E
b1111 Y
b100011 0
b100011 C
b100011 _
b100011 D
b10 J
b1111111 I
0-
17
b11111111111111111111111111101000 3
b11111111111111111111111111101000 `
b11111110111101000010010000100011 2
b11111110111101000010010000100011 H
b11111110111101000010010000100011 U
b11111110111101000010010000100011 ^
b111110000 S
b111110000 :
1"
#170
0"
#175
b1 N
b0x !
b0x $
b1 ;
b1 V
b0 '
b0 <
b1 /
b1 ?
b0 +
b0 B
b0 Z
b0 *
b0 F
b0 X
1-
b1 &
b1 =
b1111 .
b1111 G
b1111 W
b1001110000 )
b1001110000 A
b1001110000 P
b1001110000 [
b1 (
b1 E
b1 Y
b10011 0
b10011 C
b10011 _
b10011 D
b0 J
b0 I
17
01
b1 3
b1 `
b100000000011110010011 2
b100000000011110010011 H
b100000000011110010011 U
b100000000011110010011 ^
b111110100 S
b1101100011011000110010101001000 4
b1101100011011000110010101001000 O
b111110100 :
1"
#180
0"
#185
b0 4
b0 O
b1111000100 N
bx0xxxxxxxxxxxxxxxxxxxxxx000x00 !
bx0xxxxxxxxxxxxxxxxxxxxxx000x00 $
b11101111111111111111111111000100 ;
b11101111111111111111111111000100 V
b11101111111111111111111111100000 '
b11101111111111111111111111100000 <
b11101111111111111111111111000100 /
b11101111111111111111111111000100 ?
b11101111111111111111111111100000 +
b11101111111111111111111111100000 B
b11101111111111111111111111100000 Z
b1000 *
b1000 F
b1000 X
11
b11111111111111111111111111100100 &
b11111111111111111111111111100100 =
b100 .
b100 G
b100 W
b1 )
b1 A
b1 P
b1 [
b1111 (
b1111 E
b1111 Y
b100011 0
b100011 C
b100011 _
b100011 D
b10 J
b1111111 I
0-
17
b11111111111111111111111111100100 3
b11111111111111111111111111100100 `
b11111110111101000010001000100011 2
b11111110111101000010001000100011 H
b11111110111101000010001000100011 U
b11111110111101000010001000100011 ^
b111111000 S
b111111000 :
1"
#190
0"
#195
b1000101100 N
b111111100 '
b111111100 <
b0x000000000 !
b0x000000000 $
b1000000000 ;
b1000000000 V
b1000101100 /
b1000101100 ?
1%
b0 +
b0 B
b0 Z
b0 *
b0 F
b0 X
b10 5
b10 @
b10 L
1-
18
b1 ,
b1 M
16
b110000 &
b110000 =
b0 .
b0 G
b0 W
b0 )
b0 A
b0 P
b0 [
b10000 (
b10000 E
b10000 Y
b1101111 0
b1101111 C
b1101111 _
b1101111 D
b0 J
b1 I
17
01
b110000 3
b110000 `
b11000000000000000001101111 2
b11000000000000000001101111 H
b11000000000000000001101111 U
b11000000000000000001101111 ^
b111111100 S
b0 4
b0 O
b111111100 :
1"
#200
0"
#205
b1 4
b1 O
b11101111111111111111111111100000 +
b11101111111111111111111111100000 B
b11101111111111111111111111100000 Z
b1000 *
b1000 F
b1000 X
0%
b11111111111111111111111111100100 &
b11111111111111111111111111100100 =
b1110 .
b1110 G
b1110 W
b100 (
b100 E
b100 Y
b11 0
b11 C
b11 _
b11 D
b10 J
b1111111 I
1-
17
08
b0 5
b0 @
b0 L
b10 ,
b10 M
06
b11111111111111111111111111100100 3
b11111111111111111111111111100100 `
b11111110010001000010011100000011 2
b11111110010001000010011100000011 H
b11111110010001000010011100000011 U
b11111110010001000010011100000011 ^
b1111000100 N
b11101111111111111111111111000100 /
b11101111111111111111111111000100 ?
b0x !
b0x $
b1 ;
b1 V
b11101111111111111111111111100000 '
b11101111111111111111111111100000 <
b1000101100 S
b1000101100 :
1"
#210
0"
#215
b0x0x !
b0x0x $
b101 ;
b101 V
b101 4
b101 O
b1110111100 N
b11101111111111111111111110111100 /
b11101111111111111111111110111100 ?
b11111111111111111111111111011100 &
b11111111111111111111111111011100 =
b1111 .
b1111 G
b1111 W
b11100 (
b11100 E
b11100 Y
b1111110 I
1-
17
b10 ,
b10 M
b11111111111111111111111111011100 3
b11111111111111111111111111011100 `
b11111101110001000010011110000011 2
b11111101110001000010011110000011 H
b11111101110001000010011110000011 U
b11111101110001000010011110000011 ^
b1000110000 S
b1000110000 :
1"
#220
0"
#225
b0 4
b0 O
b1000000000 N
b1000110100 '
b1000110100 <
b0x000000000 !
b0x000000000 $
b1000000000 ;
b1000000000 V
b1000000000 /
b1000000000 ?
1%
b1 +
b1 B
b1 Z
b1110 *
b1110 F
b1110 X
b100 5
b100 @
b100 L
18
16
b11111111111111111111111111001100 &
b11111111111111111111111111001100 =
b1101 .
b1101 G
b1101 W
b101 )
b101 A
b101 P
b101 [
b1111 (
b1111 E
b1111 Y
b1100011 0
b1100011 C
b1100011 _
b1100011 D
b100 J
0-
17
b0 ,
b0 M
b11111111111111111111111111001100 3
b11111111111111111111111111001100 `
b11111100111101110100011011100011 2
b11111100111101110100011011100011 H
b11111100111101110100011011100011 U
b11111100111101110100011011100011 ^
b1000110100 S
b1000110100 :
1"
#230
0"
#235
b11101111111111111111111111100000 +
b11101111111111111111111111100000 B
b11101111111111111111111111100000 Z
b1000 *
b1000 F
b1000 X
1-
b10 ,
b10 M
0%
b11111111111111111111111111101100 &
b11111111111111111111111111101100 =
b1110 .
b1110 G
b1110 W
b0 )
b0 A
b0 P
b0 [
b1100 (
b1100 E
b1100 Y
b11 0
b11 C
b11 _
b11 D
b10 J
b1111111 I
17
08
b0 5
b0 @
b0 L
06
b11111111111111111111111111101100 3
b11111111111111111111111111101100 `
b11111110110001000010011100000011 2
b11111110110001000010011100000011 H
b11111110110001000010011100000011 U
b11111110110001000010011100000011 ^
b1111001100 N
b0 !
b0 $
b0 ;
b0 V
b11101111111111111111111111001100 /
b11101111111111111111111111001100 ?
b11101111111111111111111111100000 '
b11101111111111111111111111100000 <
b1000000000 S
b1000000000 :
1"
#240
0"
#245
b0x !
b0x $
b1 ;
b1 V
b1 4
b1 O
b1111001000 N
b11101111111111111111111111001000 /
b11101111111111111111111111001000 ?
b11111111111111111111111111101000 &
b11111111111111111111111111101000 =
b1111 .
b1111 G
b1111 W
b11101111111111111111111111100000 )
b11101111111111111111111111100000 A
b11101111111111111111111111100000 P
b11101111111111111111111111100000 [
b1000 (
b1000 E
b1000 Y
1-
17
b10 ,
b10 M
b11111111111111111111111111101000 3
b11111111111111111111111111101000 `
b11111110100001000010011110000011 2
b11111110100001000010011110000011 H
b11111110100001000010011110000011 U
b11111110100001000010011110000011 ^
b1000000100 S
b1000000100 :
1"
#250
0"
#255
b1101100011011000110010101001000 4
b1101100011011000110010101001000 O
b1 N
b0 '
b0 <
b0x !
b0x $
b1 ;
b1 V
b1 /
b1 ?
b0 +
b0 B
b0 Z
b1110 *
b1110 F
b1110 X
b1 &
b1 =
b1 )
b1 A
b1 P
b1 [
b1111 (
b1111 E
b1111 Y
b110011 0
b110011 C
b110011 _
b110011 D
b0 J
b0 I
1-
07
b0 ,
b0 M
b11111111111111111111111111111111 3
b11111111111111111111111111111111 `
b111101110000011110110011 2
b111101110000011110110011 H
b111101110000011110110011 U
b111101110000011110110011 ^
b1000001000 S
b1000001000 :
1"
#260
0"
#265
b0 4
b0 O
b11101111111111111111111111100000 '
b11101111111111111111111111100000 <
b11111111111111111111111111100000 &
b11111111111111111111111111100000 =
b1111000000 N
bx0xxxxxxxxxxxxxxxxxxxxxx000000 !
bx0xxxxxxxxxxxxxxxxxxxxxx000000 $
b11101111111111111111111111000000 ;
b11101111111111111111111111000000 V
b11101111111111111111111111100000 +
b11101111111111111111111111100000 B
b11101111111111111111111111100000 Z
b1000 *
b1000 F
b1000 X
b11111111111111111111111111100000 3
b11111111111111111111111111100000 `
17
11
b11101111111111111111111111000000 /
b11101111111111111111111111000000 ?
b0 .
b0 G
b0 W
b100011 0
b100011 C
b100011 _
b100011 D
b10 J
b1111111 I
b11001 9
b11001 >
b11001 K
0-
b11111110111101000010000000100011 2
b11111110111101000010000000100011 H
b11111110111101000010000000100011 U
b11111110111101000010000000100011 ^
b1000001100 S
b1000001100 :
1"
#270
0"
#275
b1111001000 N
b0x !
b0x $
b1 ;
b1 V
b11101111111111111111111111001000 /
b11101111111111111111111111001000 ?
1-
b10 ,
b10 M
b11111111111111111111111111101000 &
b11111111111111111111111111101000 =
b1111 .
b1111 G
b1111 W
b11101111111111111111111111100000 )
b11101111111111111111111111100000 A
b11101111111111111111111111100000 P
b11101111111111111111111111100000 [
b1000 (
b1000 E
b1000 Y
b11 0
b11 C
b11 _
b11 D
17
01
b11111111111111111111111111101000 3
b11111111111111111111111111101000 `
b11111110100001000010011110000011 2
b11111110100001000010011110000011 H
b11111110100001000010011110000011 U
b11111110100001000010011110000011 ^
b1000010000 S
b1 4
b1 O
b1000010000 :
1"
#280
0"
#285
b0 4
b0 O
b1111001100 N
bx0xxxxxxxxxxxxxxxxxxxxxx00xx00 !
bx0xxxxxxxxxxxxxxxxxxxxxx00xx00 $
b11101111111111111111111111001100 ;
b11101111111111111111111111001100 V
b11101111111111111111111111001100 /
b11101111111111111111111111001100 ?
11
b11111111111111111111111111101100 &
b11111111111111111111111111101100 =
b1100 .
b1100 G
b1100 W
b1 )
b1 A
b1 P
b1 [
b1111 (
b1111 E
b1111 Y
b100011 0
b100011 C
b100011 _
b100011 D
0-
17
b0 ,
b0 M
b11111111111111111111111111101100 3
b11111111111111111111111111101100 `
b11111110111101000010011000100011 2
b11111110111101000010011000100011 H
b11111110111101000010011000100011 U
b11111110111101000010011000100011 ^
b1000010100 S
b1000010100 :
1"
#290
0"
#295
b1111000000 N
b0x !
b0x $
b1 ;
b1 V
b11101111111111111111111111000000 /
b11101111111111111111111111000000 ?
1-
b10 ,
b10 M
b11111111111111111111111111100000 &
b11111111111111111111111111100000 =
b1111 .
b1111 G
b1111 W
b0 )
b0 A
b0 P
b0 [
b0 (
b0 E
b0 Y
b11 0
b11 C
b11 _
b11 D
17
01
b11111111111111111111111111100000 3
b11111111111111111111111111100000 `
b11111110000001000010011110000011 2
b11111110000001000010011110000011 H
b11111110000001000010011110000011 U
b11111110000001000010011110000011 ^
b1000011000 S
b1 4
b1 O
b1000011000 :
1"
#300
0"
#305
b1111001000 N
bx0xxxxxxxxxxxxxxxxxxxxxx00x000 !
bx0xxxxxxxxxxxxxxxxxxxxxx00x000 $
b11101111111111111111111111001000 ;
b11101111111111111111111111001000 V
b11101111111111111111111111001000 /
b11101111111111111111111111001000 ?
11
b11111111111111111111111111101000 &
b11111111111111111111111111101000 =
b1000 .
b1000 G
b1000 W
b1 )
b1 A
b1 P
b1 [
b1111 (
b1111 E
b1111 Y
b100011 0
b100011 C
b100011 _
b100011 D
0-
17
b0 ,
b0 M
b11111111111111111111111111101000 3
b11111111111111111111111111101000 `
b11111110111101000010010000100011 2
b11111110111101000010010000100011 H
b11111110111101000010010000100011 U
b11111110111101000010010000100011 ^
b1000011100 S
b1000011100 :
1"
#310
0"
#315
b1111000100 N
b0x !
b0x $
b1 ;
b1 V
b11101111111111111111111111000100 /
b11101111111111111111111111000100 ?
1-
b10 ,
b10 M
b11111111111111111111111111100100 &
b11111111111111111111111111100100 =
b1111 .
b1111 G
b1111 W
b0 )
b0 A
b0 P
b0 [
b100 (
b100 E
b100 Y
b11 0
b11 C
b11 _
b11 D
17
01
b11111111111111111111111111100100 3
b11111111111111111111111111100100 `
b11111110010001000010011110000011 2
b11111110010001000010011110000011 H
b11111110010001000010011110000011 U
b11111110010001000010011110000011 ^
b1000100000 S
b1000100000 :
1"
#320
0"
#325
b1101100011011000110010101001000 4
b1101100011011000110010101001000 O
b10 N
b1 '
b1 <
b0x0 !
b0x0 $
b10 ;
b10 V
b10 /
b10 ?
b1 +
b1 B
b1 Z
b1111 *
b1111 F
b1111 X
b1 &
b1 =
b1001110000 )
b1001110000 A
b1001110000 P
b1001110000 [
b1 (
b1 E
b1 Y
b10011 0
b10011 C
b10011 _
b10011 D
b0 J
b0 I
1-
17
b0 ,
b0 M
b1 3
b1 `
b101111000011110010011 2
b101111000011110010011 H
b101111000011110010011 U
b101111000011110010011 ^
b1000100100 S
b1000100100 :
1"
#330
0"
