top_tb.vcd
$date
	Sat Oct 18 01:16:48 2025
$end
$version
	Icarus Verilog
$end
$timescale
	1ns
$end
$scope module top_tb $end
$var wire 32 ! debug [31:0] $end
$var reg 1 " clk $end
$var reg 1 # rst $end
$scope module dut $end
$var wire 1 " clk $end
$var wire 32 $ debug [31:0] $end
$var wire 1 # rst $end
$var wire 1 % take $end
$var wire 32 & sel_alu_src_b [31:0] $end
$var wire 32 ' sel_alu_src_a [31:0] $end
$var wire 5 ( rs2_addr [4:0] $end
$var wire 32 ) rs2 [31:0] $end
$var wire 5 * rs1_addr [4:0] $end
$var wire 32 + rs1 [31:0] $end
$var wire 2 , result_mux [1:0] $end
$var wire 1 - reg_write $end
$var wire 5 . rd_addr [4:0] $end
$var wire 32 / rd [31:0] $end
$var wire 7 0 opcode [6:0] $end
$var wire 1 1 mem_write $end
$var wire 32 2 inst [31:0] $end
$var wire 32 3 immediate [31:0] $end
$var wire 32 4 data [31:0] $end
$var wire 3 5 branch_op [2:0] $end
$var wire 1 6 branch $end
$var wire 1 7 alu_src_b $end
$var wire 1 8 alu_src_a $end
$var wire 6 9 alu_op [5:0] $end
$var reg 32 : pc [31:0] $end
$var reg 32 ; result [31:0] $end
$scope module alu $end
$var wire 32 < i_a [31:0] $end
$var wire 32 = i_b [31:0] $end
$var wire 6 > i_alu_op [5:0] $end
$var reg 32 ? o_c [31:0] $end
$upscope $end
$scope module b $end
$var wire 3 @ i_branch_op [2:0] $end
$var wire 1 6 i_branch $end
$var wire 32 A i_b [31:0] $end
$var wire 32 B i_a [31:0] $end
$var reg 1 % o_take $end
$upscope $end
$scope module dec $end
$var wire 7 C o_opcode [6:0] $end
$var wire 7 D opcode [6:0] $end
$var wire 5 E o_rs2_addr [4:0] $end
$var wire 5 F o_rs1_addr [4:0] $end
$var wire 5 G o_rd_addr [4:0] $end
$var wire 32 H i_inst [31:0] $end
$var wire 7 I funct_7 [6:0] $end
$var wire 3 J funct_3 [2:0] $end
$var reg 6 K o_alu_op [5:0] $end
$var reg 1 8 o_alu_src_a $end
$var reg 1 7 o_alu_src_b $end
$var reg 1 6 o_branch $end
$var reg 3 L o_branch_op [2:0] $end
$var reg 1 1 o_mem_write $end
$var reg 1 - o_reg_write $end
$var reg 2 M o_result_mux [1:0] $end
$upscope $end
$scope module dmem $end
$var wire 10 N i_addr [9:0] $end
$var wire 1 " i_clk $end
$var wire 1 1 i_we $end
$var wire 32 O o_data [31:0] $end
$var wire 32 P i_data [31:0] $end
$var parameter 32 Q MEM_SIZE $end
$upscope $end
$scope module imem $end
$var wire 10 R i_addr [9:0] $end
$var parameter 32 S MEM_SIZE $end
$var reg 32 T o_inst [31:0] $end
$upscope $end
$scope module reg_file $end
$var wire 1 " i_clk $end
$var wire 32 U i_rd [31:0] $end
$var wire 5 V i_rd_addr [4:0] $end
$var wire 5 W i_rs1_addr [4:0] $end
$var wire 5 X i_rs2_addr [4:0] $end
$var wire 1 # i_rst $end
$var wire 1 - i_we $end
$var wire 32 Y o_rs1 [31:0] $end
$var wire 32 Z o_rs2 [31:0] $end
$upscope $end
$scope module sign_ext $end
$var wire 32 [ i_inst [31:0] $end
$var wire 7 \ i_opcode [6:0] $end
$var reg 32 ] o_immediate_extended [31:0] $end
$upscope $end
$upscope $end
$scope begin $ivl_for_loop0 $end
$var integer 32 ^ i [31:0] $end
$scope begin REG_FILE_INITIALIZE $end
$upscope $end
$upscope $end
$scope begin $ivl_for_loop1 $end
$var integer 32 _ i [31:0] $end
$scope begin DATA_MEM_INITIALIZE $end
$upscope $end
$upscope $end
$upscope $end
$enddefinitions $end
$comment Show the parameter values. $end
$dumpall
b10000000000 S
b10000000000 Q
$end
#0
$dumpvars
b10000000000 _
b100000 ^
b11110000000000000000000000000000 ]
b110111 \
b11110000000000000000000100110111 [
b0 Z
b0 Y
b0 X
b0 W
b10 V
b11110000000000000000000000000000 U
b11110000000000000000000100110111 T
b0 R
b0 P
b1101100011011000110010101001000 O
b0 N
b0 M
b0 L
b11001 K
b0 J
b1111000 I
b11110000000000000000000100110111 H
b10 G
b0 F
b0 E
b110111 D
b110111 C
b0 B
b0 A
b0 @
b11110000000000000000000000000000 ?
b11001 >
b11110000000000000000000000000000 =
b0 <
b11110000000000000000000000000000 ;
b0 :
b11001 9
08
17
06
b0 5
b1101100011011000110010101001000 4
b11110000000000000000000000000000 3
b11110000000000000000000100110111 2
01
b110111 0
b11110000000000000000000000000000 /
b10 .
1-
b0 ,
b0 +
b0 *
b0 )
b0 (
b0 '
b11110000000000000000000000000000 &
0%
b11110000000000000000000000000000 $
1#
0"
b11110000000000000000000000000000 !
$end
#5
b11110000000000000000000000000000 !
b11110000000000000000000000000000 $
b11110000000000000000000000000000 ;
b11110000000000000000000000000000 U
b11110000000000000000000000000000 '
b11110000000000000000000000000000 <
b11110000000000000000000000000000 /
b11110000000000000000000000000000 ?
b11110000000000000000000000000000 +
b11110000000000000000000000000000 B
b11110000000000000000000000000000 Y
b10 *
b10 F
b10 W
b0 &
b0 =
b10011 0
b10011 C
b10011 \
b10011 D
b0 I
1-
17
b0 3
b0 ]
b10000000100010011 2
b10000000100010011 H
b10000000100010011 T
b10000000100010011 [
b100 R
b100 :
0#
1"
#10
0"
#15
b0 4
b0 O
b1001011000 N
b1000 '
b1000 <
b1100 !
b1100 $
b1100 ;
b1100 U
1%
b1001011000 /
b1001011000 ?
b0 +
b0 B
b0 Y
b0 *
b0 F
b0 W
b10 5
b10 @
b10 L
18
b1 ,
b1 M
16
b1001010000 &
b1001010000 =
b1 .
b1 G
b1 V
b10000 (
b10000 E
b10000 X
b1101111 0
b1101111 C
b1101111 \
b1101111 D
b10010 I
1-
17
b1001010000 3
b1001010000 ]
b100101000000000000000011101111 2
b100101000000000000000011101111 H
b100101000000000000000011101111 T
b100101000000000000000011101111 [
b1000 R
b1000 :
1"
#20
0"
#25
b11110000000000000000000000000000 +
b11110000000000000000000000000000 B
b11110000000000000000000000000000 Y
b10 *
b10 F
b10 W
0%
b11111111111111111111111111100000 &
b11111111111111111111111111100000 =
b10 .
b10 G
b10 V
b0 (
b0 E
b0 X
b10011 0
b10011 C
b10011 \
b10011 D
b1111111 I
1-
17
08
b0 5
b0 @
b0 L
b0 ,
b0 M
06
b11111111111111111111111111100000 3
b11111111111111111111111111100000 ]
b11111110000000010000000100010011 2
b11111110000000010000000100010011 H
b11111110000000010000000100010011 T
b11111110000000010000000100010011 [
b1111100000 N
b11101111111111111111111111100000 /
b11101111111111111111111111100000 ?
b11101111111111111111111111100000 !
b11101111111111111111111111100000 $
b11101111111111111111111111100000 ;
b11101111111111111111111111100000 U
b11110000000000000000000000000000 '
b11110000000000000000000000000000 <
b1001011000 R
b1001011000 :
1"
#30
0"
#35
11
b11100 &
b11100 =
b11100 .
b11100 G
b11100 V
b1100 )
b1100 A
b1100 P
b1100 Z
b1 (
b1 E
b1 X
b100011 0
b100011 C
b100011 \
b100011 D
b10 J
b0 I
0-
17
b11100 3
b11100 ]
b100010010111000100011 2
b100010010111000100011 H
b100010010111000100011 T
b100010010111000100011 [
b1111111100 N
b11101111111111111111111111111100 !
b11101111111111111111111111111100 $
b11101111111111111111111111111100 ;
b11101111111111111111111111111100 U
b11101111111111111111111111111100 /
b11101111111111111111111111111100 ?
b11101111111111111111111111100000 '
b11101111111111111111111111100000 <
b1001011100 R
b11101111111111111111111111100000 +
b11101111111111111111111111100000 B
b11101111111111111111111111100000 Y
b1001011100 :
1"
#40
0"
#45
b1111111000 N
b11101111111111111111111111111000 !
b11101111111111111111111111111000 $
b11101111111111111111111111111000 ;
b11101111111111111111111111111000 U
b11101111111111111111111111111000 /
b11101111111111111111111111111000 ?
b11000 &
b11000 =
b11000 .
b11000 G
b11000 V
b0 )
b0 A
b0 P
b0 Z
b1000 (
b1000 E
b1000 X
17
11
b11000 3
b11000 ]
b100000010010110000100011 2
b100000010010110000100011 H
b100000010010110000100011 T
b100000010010110000100011 [
b1001100000 R
b0 4
b0 O
b1001100000 :
1"
#50
0"
#55
b1101100011011000110010101001000 4
b1101100011011000110010101001000 O
b0 N
b11110000000000000000000000000000 !
b11110000000000000000000000000000 $
b11110000000000000000000000000000 ;
b11110000000000000000000000000000 U
b11110000000000000000000000000000 /
b11110000000000000000000000000000 ?
1-
b100000 &
b100000 =
b1000 .
b1000 G
b1000 V
b0 (
b0 E
b0 X
b10011 0
b10011 C
b10011 \
b10011 D
b0 J
b1 I
17
01
b100000 3
b100000 ]
b10000000010000010000010011 2
b10000000010000010000010011 H
b10000000010000010000010011 T
b10000000010000010000010011 [
b1001100100 R
b1001100100 :
1"
#60
0"
#65
b1101111011101110010000001101111 4
b1101111011101110010000001101111 O
b101 N
b101 !
b101 $
b101 ;
b101 U
b0 '
b0 <
b101 /
b101 ?
b0 +
b0 B
b0 Y
b0 *
b0 F
b0 W
b101 &
b101 =
b1010 .
b1010 G
b1010 V
b101 (
b101 E
b101 X
b0 I
1-
17
b101 3
b101 ]
b10100000000010100010011 2
b10100000000010100010011 H
b10100000000010100010011 T
b10100000000010100010011 [
b1001101000 R
b1001101000 :
1"
#70
0"
#75
b0 4
b0 O
b111010000 N
b1001101100 '
b1001101100 <
b1001110000 !
b1001110000 $
b1001110000 ;
b1001110000 U
1%
b111010000 /
b111010000 ?
b11111 *
b11111 F
b11111 W
b10 5
b10 @
b10 L
18
b1 ,
b1 M
16
b11111111111111111111111101100100 &
b11111111111111111111111101100100 =
b1 .
b1 G
b1 V
b1101111 0
b1101111 C
b1101111 \
b1101111 D
b111 J
b1111011 I
1-
17
b11111111111111111111111101100100 3
b11111111111111111111111101100100 ]
b11110110010111111111000011101111 2
b11110110010111111111000011101111 H
b11110110010111111111000011101111 T
b11110110010111111111000011101111 [
b1001101100 R
b1001101100 :
1"
#80
0"
#85
b11101111111111111111111111100000 +
b11101111111111111111111111100000 B
b11101111111111111111111111100000 Y
b10 *
b10 F
b10 W
0%
b11111111111111111111111111010000 &
b11111111111111111111111111010000 =
b10 .
b10 G
b10 V
b10000 (
b10000 E
b10000 X
b10011 0
b10011 C
b10011 \
b10011 D
b0 J
b1111110 I
1-
17
08
b0 5
b0 @
b0 L
b0 ,
b0 M
06
b11111111111111111111111111010000 3
b11111111111111111111111111010000 ]
b11111101000000010000000100010011 2
b11111101000000010000000100010011 H
b11111101000000010000000100010011 T
b11111101000000010000000100010011 [
b1110110000 N
b11101111111111111111111110110000 /
b11101111111111111111111110110000 ?
b11101111111111111111111110110000 !
b11101111111111111111111110110000 $
b11101111111111111111111110110000 ;
b11101111111111111111111110110000 U
b11101111111111111111111111100000 '
b11101111111111111111111111100000 <
b111010000 R
b111010000 :
1"
#90
0"
#95
11
b101100 &
b101100 =
b1100 .
b1100 G
b1100 V
b11110000000000000000000000000000 )
b11110000000000000000000000000000 A
b11110000000000000000000000000000 P
b11110000000000000000000000000000 Z
b1000 (
b1000 E
b1000 X
b100011 0
b100011 C
b100011 \
b100011 D
b10 J
b1 I
0-
17
b101100 3
b101100 ]
b10100000010010011000100011 2
b10100000010010011000100011 H
b10100000010010011000100011 T
b10100000010010011000100011 [
b1111011100 N
b11101111111111111111111111011100 !
b11101111111111111111111111011100 $
b11101111111111111111111111011100 ;
b11101111111111111111111111011100 U
b11101111111111111111111111011100 /
b11101111111111111111111111011100 ?
b11101111111111111111111110110000 '
b11101111111111111111111110110000 <
b111010100 R
b11101111111111111111111110110000 +
b11101111111111111111111110110000 B
b11101111111111111111111110110000 Y
b111010100 :
1"
#100
0"
#105
b1111100000 N
b11101111111111111111111111100000 !
b11101111111111111111111111100000 $
b11101111111111111111111111100000 ;
b11101111111111111111111111100000 U
b11101111111111111111111111100000 /
b11101111111111111111111111100000 ?
1-
b110000 &
b110000 =
b1000 .
b1000 G
b1000 V
b0 )
b0 A
b0 P
b0 Z
b10000 (
b10000 E
b10000 X
b10011 0
b10011 C
b10011 \
b10011 D
b0 J
17
01
b110000 3
b110000 ]
b11000000010000010000010011 2
b11000000010000010000010011 H
b11000000010000010000010011 T
b11000000010000010000010011 [
b111011000 R
b0 4
b0 O
b111011000 :
1"
#110
0"
#115
b1110111100 N
b11101111111111111111111110111100 !
b11101111111111111111111110111100 $
b11101111111111111111111110111100 ;
b11101111111111111111111110111100 U
b11101111111111111111111111100000 '
b11101111111111111111111111100000 <
b11101111111111111111111110111100 /
b11101111111111111111111110111100 ?
b11101111111111111111111111100000 +
b11101111111111111111111111100000 B
b11101111111111111111111111100000 Y
b1000 *
b1000 F
b1000 W
11
b11111111111111111111111111011100 &
b11111111111111111111111111011100 =
b11100 .
b11100 G
b11100 V
b101 )
b101 A
b101 P
b101 Z
b1010 (
b1010 E
b1010 X
b100011 0
b100011 C
b100011 \
b100011 D
b10 J
b1111110 I
0-
17
b11111111111111111111111111011100 3
b11111111111111111111111111011100 ]
b11111100101001000010111000100011 2
b11111100101001000010111000100011 H
b11111100101001000010111000100011 T
b11111100101001000010111000100011 [
b111011100 R
b111011100 :
1"
#120
0"
#125
b1110111100 N
b101 !
b101 $
b101 ;
b101 U
b11101111111111111111111110111100 /
b11101111111111111111111110111100 ?
1-
b10 ,
b10 M
b11111111111111111111111111011100 &
b11111111111111111111111111011100 =
b1111 .
b1111 G
b1111 V
b0 )
b0 A
b0 P
b0 Z
b11100 (
b11100 E
b11100 X
b11 0
b11 C
b11 \
b11 D
17
01
b11111111111111111111111111011100 3
b11111111111111111111111111011100 ]
b11111101110001000010011110000011 2
b11111101110001000010011110000011 H
b11111101110001000010011110000011 T
b11111101110001000010011110000011 [
b111100000 R
b101 4
b101 O
b111100000 :
1"
#130
0"
#135
b0 4
b0 O
b1001000000 N
b111100100 '
b111100100 <
b1001000000 !
b1001000000 $
b1001000000 ;
b1001000000 U
b1001000000 /
b1001000000 ?
b0 +
b0 B
b0 Y
b0 *
b0 F
b0 W
b101 5
b101 @
b101 L
18
16
b1011100 &
b1011100 =
b11100 .
b11100 G
b11100 V
b101 )
b101 A
b101 P
b101 Z
b1111 (
b1111 E
b1111 X
b1100011 0
b1100011 C
b1100011 \
b1100011 D
b101 J
b10 I
0-
17
b0 ,
b0 M
b1011100 3
b1011100 ]
b100111100000101111001100011 2
b100111100000101111001100011 H
b100111100000101111001100011 T
b100111100000101111001100011 [
b111100100 R
b111100100 :
1"
#140
0"
#145
b11101111111111111111111111100000 +
b11101111111111111111111111100000 B
b11101111111111111111111111100000 Y
b1000 *
b1000 F
b1000 W
11
0%
b11111111111111111111111111101100 &
b11111111111111111111111111101100 =
b1100 .
b1100 G
b1100 V
b0 )
b0 A
b0 P
b0 Z
b0 (
b0 E
b0 X
b100011 0
b100011 C
b100011 \
b100011 D
b10 J
b1111111 I
17
08
b0 5
b0 @
b0 L
06
b11111111111111111111111111101100 3
b11111111111111111111111111101100 ]
b11111110000001000010011000100011 2
b11111110000001000010011000100011 H
b11111110000001000010011000100011 T
b11111110000001000010011000100011 [
b1111001100 N
b11101111111111111111111111001100 !
b11101111111111111111111111001100 $
b11101111111111111111111111001100 ;
b11101111111111111111111111001100 U
b11101111111111111111111111001100 /
b11101111111111111111111111001100 ?
b11101111111111111111111111100000 '
b11101111111111111111111111100000 <
b111101000 R
b111101000 :
1"
#150
0"
#155
b1101100011011000110010101001000 4
b1101100011011000110010101001000 O
b1 N
b1 !
b1 $
b1 ;
b1 U
b0 '
b0 <
b1 /
b1 ?
b0 +
b0 B
b0 Y
b0 *
b0 F
b0 W
1-
b1 &
b1 =
b1111 .
b1111 G
b1111 V
b1001110000 )
b1001110000 A
b1001110000 P
b1001110000 Z
b1 (
b1 E
b1 X
b10011 0
b10011 C
b10011 \
b10011 D
b0 J
b0 I
17
01
b1 3
b1 ]
b100000000011110010011 2
b100000000011110010011 H
b100000000011110010011 T
b100000000011110010011 [
b111101100 R
b111101100 :
1"
#160
0"
#165
b0 4
b0 O
b1111001000 N
b11101111111111111111111111001000 !
b11101111111111111111111111001000 $
b11101111111111111111111111001000 ;
b11101111111111111111111111001000 U
b11101111111111111111111111100000 '
b11101111111111111111111111100000 <
b11101111111111111111111111001000 /
b11101111111111111111111111001000 ?
b11101111111111111111111111100000 +
b11101111111111111111111111100000 B
b11101111111111111111111111100000 Y
b1000 *
b1000 F
b1000 W
11
b11111111111111111111111111101000 &
b11111111111111111111111111101000 =
b1000 .
b1000 G
b1000 V
b1 )
b1 A
b1 P
b1 Z
b1111 (
b1111 E
b1111 X
b100011 0
b100011 C
b100011 \
b100011 D
b10 J
b1111111 I
0-
17
b11111111111111111111111111101000 3
b11111111111111111111111111101000 ]
b11111110111101000010010000100011 2
b11111110111101000010010000100011 H
b11111110111101000010010000100011 T
b11111110111101000010010000100011 [
b111110000 R
b111110000 :
1"
#170
0"
#175
b1 N
b1 !
b1 $
b1 ;
b1 U
b0 '
b0 <
b1 /
b1 ?
b0 +
b0 B
b0 Y
b0 *
b0 F
b0 W
1-
b1 &
b1 =
b1111 .
b1111 G
b1111 V
b1001110000 )
b1001110000 A
b1001110000 P
b1001110000 Z
b1 (
b1 E
b1 X
b10011 0
b10011 C
b10011 \
b10011 D
b0 J
b0 I
17
01
b1 3
b1 ]
b100000000011110010011 2
b100000000011110010011 H
b100000000011110010011 T
b100000000011110010011 [
b111110100 R
b1101100011011000110010101001000 4
b1101100011011000110010101001000 O
b111110100 :
1"
#180
0"
#185
b0 4
b0 O
b1111000100 N
b11101111111111111111111111000100 !
b11101111111111111111111111000100 $
b11101111111111111111111111000100 ;
b11101111111111111111111111000100 U
b11101111111111111111111111100000 '
b11101111111111111111111111100000 <
b11101111111111111111111111000100 /
b11101111111111111111111111000100 ?
b11101111111111111111111111100000 +
b11101111111111111111111111100000 B
b11101111111111111111111111100000 Y
b1000 *
b1000 F
b1000 W
11
b11111111111111111111111111100100 &
b11111111111111111111111111100100 =
b100 .
b100 G
b100 V
b1 )
b1 A
b1 P
b1 Z
b1111 (
b1111 E
b1111 X
b100011 0
b100011 C
b100011 \
b100011 D
b10 J
b1111111 I
0-
17
b11111111111111111111111111100100 3
b11111111111111111111111111100100 ]
b11111110111101000010001000100011 2
b11111110111101000010001000100011 H
b11111110111101000010001000100011 T
b11111110111101000010001000100011 [
b111111000 R
b111111000 :
1"
#190
0"
#195
b1000101100 N
b111111100 '
b111111100 <
b1000000000 !
b1000000000 $
b1000000000 ;
b1000000000 U
b1000101100 /
b1000101100 ?
1%
b0 +
b0 B
b0 Y
b0 *
b0 F
b0 W
b10 5
b10 @
b10 L
1-
18
b1 ,
b1 M
16
b110000 &
b110000 =
b0 .
b0 G
b0 V
b0 )
b0 A
b0 P
b0 Z
b10000 (
b10000 E
b10000 X
b1101111 0
b1101111 C
b1101111 \
b1101111 D
b0 J
b1 I
17
01
b110000 3
b110000 ]
b11000000000000000001101111 2
b11000000000000000001101111 H
b11000000000000000001101111 T
b11000000000000000001101111 [
b111111100 R
b0 4
b0 O
b111111100 :
1"
#200
0"
#205
b1 4
b1 O
b11101111111111111111111111100000 +
b11101111111111111111111111100000 B
b11101111111111111111111111100000 Y
b1000 *
b1000 F
b1000 W
0%
b11111111111111111111111111100100 &
b11111111111111111111111111100100 =
b1110 .
b1110 G
b1110 V
b100 (
b100 E
b100 X
b11 0
b11 C
b11 \
b11 D
b10 J
b1111111 I
1-
17
08
b0 5
b0 @
b0 L
b10 ,
b10 M
06
b11111111111111111111111111100100 3
b11111111111111111111111111100100 ]
b11111110010001000010011100000011 2
b11111110010001000010011100000011 H
b11111110010001000010011100000011 T
b11111110010001000010011100000011 [
b1111000100 N
b11101111111111111111111111000100 /
b11101111111111111111111111000100 ?
b1 !
b1 $
b1 ;
b1 U
b11101111111111111111111111100000 '
b11101111111111111111111111100000 <
b1000101100 R
b1000101100 :
1"
#210
0"
#215
b101 !
b101 $
b101 ;
b101 U
b101 4
b101 O
b1110111100 N
b11101111111111111111111110111100 /
b11101111111111111111111110111100 ?
b11111111111111111111111111011100 &
b11111111111111111111111111011100 =
b1111 .
b1111 G
b1111 V
b11100 (
b11100 E
b11100 X
b1111110 I
1-
17
b10 ,
b10 M
b11111111111111111111111111011100 3
b11111111111111111111111111011100 ]
b11111101110001000010011110000011 2
b11111101110001000010011110000011 H
b11111101110001000010011110000011 T
b11111101110001000010011110000011 [
b1000110000 R
b1000110000 :
1"
#220
0"
#225
b0 4
b0 O
b1000000000 N
b1000110100 '
b1000110100 <
b1000000000 !
b1000000000 $
b1000000000 ;
b1000000000 U
b1000000000 /
b1000000000 ?
1%
b1 +
b1 B
b1 Y
b1110 *
b1110 F
b1110 W
b100 5
b100 @
b100 L
18
16
b11111111111111111111111111001100 &
b11111111111111111111111111001100 =
b1101 .
b1101 G
b1101 V
b101 )
b101 A
b101 P
b101 Z
b1111 (
b1111 E
b1111 X
b1100011 0
b1100011 C
b1100011 \
b1100011 D
b100 J
0-
17
b0 ,
b0 M
b11111111111111111111111111001100 3
b11111111111111111111111111001100 ]
b11111100111101110100011011100011 2
b11111100111101110100011011100011 H
b11111100111101110100011011100011 T
b11111100111101110100011011100011 [
b1000110100 R
b1000110100 :
1"
#230
0"
#235
b11101111111111111111111111100000 +
b11101111111111111111111111100000 B
b11101111111111111111111111100000 Y
b1000 *
b1000 F
b1000 W
1-
b10 ,
b10 M
0%
b11111111111111111111111111101100 &
b11111111111111111111111111101100 =
b1110 .
b1110 G
b1110 V
b0 )
b0 A
b0 P
b0 Z
b1100 (
b1100 E
b1100 X
b11 0
b11 C
b11 \
b11 D
b10 J
b1111111 I
17
08
b0 5
b0 @
b0 L
06
b11111111111111111111111111101100 3
b11111111111111111111111111101100 ]
b11111110110001000010011100000011 2
b11111110110001000010011100000011 H
b11111110110001000010011100000011 T
b11111110110001000010011100000011 [
b1111001100 N
b0 !
b0 $
b0 ;
b0 U
b11101111111111111111111111001100 /
b11101111111111111111111111001100 ?
b11101111111111111111111111100000 '
b11101111111111111111111111100000 <
b1000000000 R
b1000000000 :
1"
#240
0"
#245
b1 !
b1 $
b1 ;
b1 U
b1 4
b1 O
b1111001000 N
b11101111111111111111111111001000 /
b11101111111111111111111111001000 ?
b11111111111111111111111111101000 &
b11111111111111111111111111101000 =
b1111 .
b1111 G
b1111 V
b11101111111111111111111111100000 )
b11101111111111111111111111100000 A
b11101111111111111111111111100000 P
b11101111111111111111111111100000 Z
b1000 (
b1000 E
b1000 X
1-
17
b10 ,
b10 M
b11111111111111111111111111101000 3
b11111111111111111111111111101000 ]
b11111110100001000010011110000011 2
b11111110100001000010011110000011 H
b11111110100001000010011110000011 T
b11111110100001000010011110000011 [
b1000000100 R
b1000000100 :
1"
#250
0"
#255
b1101100011011000110010101001000 4
b1101100011011000110010101001000 O
b1 N
b0 '
b0 <
b1 !
b1 $
b1 ;
b1 U
b1 /
b1 ?
b0 +
b0 B
b0 Y
b1110 *
b1110 F
b1110 W
b1 &
b1 =
b1 )
b1 A
b1 P
b1 Z
b1111 (
b1111 E
b1111 X
b110011 0
b110011 C
b110011 \
b110011 D
b0 J
b0 I
1-
07
b0 ,
b0 M
b11111111111111111111111111111111 3
b11111111111111111111111111111111 ]
b111101110000011110110011 2
b111101110000011110110011 H
b111101110000011110110011 T
b111101110000011110110011 [
b1000001000 R
b1000001000 :
1"
#260
0"
#265
b0 4
b0 O
b11101111111111111111111111100000 '
b11101111111111111111111111100000 <
b11111111111111111111111111100000 &
b11111111111111111111111111100000 =
b1111000000 N
b11101111111111111111111111000000 !
b11101111111111111111111111000000 $
b11101111111111111111111111000000 ;
b11101111111111111111111111000000 U
b11101111111111111111111111100000 +
b11101111111111111111111111100000 B
b11101111111111111111111111100000 Y
b1000 *
b1000 F
b1000 W
b11111111111111111111111111100000 3
b11111111111111111111111111100000 ]
17
11
b11101111111111111111111111000000 /
b11101111111111111111111111000000 ?
b0 .
b0 G
b0 V
b100011 0
b100011 C
b100011 \
b100011 D
b10 J
b1111111 I
b11001 9
b11001 >
b11001 K
0-
b11111110111101000010000000100011 2
b11111110111101000010000000100011 H
b11111110111101000010000000100011 T
b11111110111101000010000000100011 [
b1000001100 R
b1000001100 :
1"
#270
0"
#275
b1111001000 N
b1 !
b1 $
b1 ;
b1 U
b11101111111111111111111111001000 /
b11101111111111111111111111001000 ?
1-
b10 ,
b10 M
b11111111111111111111111111101000 &
b11111111111111111111111111101000 =
b1111 .
b1111 G
b1111 V
b11101111111111111111111111100000 )
b11101111111111111111111111100000 A
b11101111111111111111111111100000 P
b11101111111111111111111111100000 Z
b1000 (
b1000 E
b1000 X
b11 0
b11 C
b11 \
b11 D
17
01
b11111111111111111111111111101000 3
b11111111111111111111111111101000 ]
b11111110100001000010011110000011 2
b11111110100001000010011110000011 H
b11111110100001000010011110000011 T
b11111110100001000010011110000011 [
b1000010000 R
b1 4
b1 O
b1000010000 :
1"
#280
0"
#285
b0 4
b0 O
b1111001100 N
b11101111111111111111111111001100 !
b11101111111111111111111111001100 $
b11101111111111111111111111001100 ;
b11101111111111111111111111001100 U
b11101111111111111111111111001100 /
b11101111111111111111111111001100 ?
11
b11111111111111111111111111101100 &
b11111111111111111111111111101100 =
b1100 .
b1100 G
b1100 V
b1 )
b1 A
b1 P
b1 Z
b1111 (
b1111 E
b1111 X
b100011 0
b100011 C
b100011 \
b100011 D
0-
17
b0 ,
b0 M
b11111111111111111111111111101100 3
b11111111111111111111111111101100 ]
b11111110111101000010011000100011 2
b11111110111101000010011000100011 H
b11111110111101000010011000100011 T
b11111110111101000010011000100011 [
b1000010100 R
b1000010100 :
1"
#290
0"
#295
b1111000000 N
b1 !
b1 $
b1 ;
b1 U
b11101111111111111111111111000000 /
b11101111111111111111111111000000 ?
1-
b10 ,
b10 M
b11111111111111111111111111100000 &
b11111111111111111111111111100000 =
b1111 .
b1111 G
b1111 V
b0 )
b0 A
b0 P
b0 Z
b0 (
b0 E
b0 X
b11 0
b11 C
b11 \
b11 D
17
01
b11111111111111111111111111100000 3
b11111111111111111111111111100000 ]
b11111110000001000010011110000011 2
b11111110000001000010011110000011 H
b11111110000001000010011110000011 T
b11111110000001000010011110000011 [
b1000011000 R
b1 4
b1 O
b1000011000 :
1"
#300
0"
#305
b1111001000 N
b11101111111111111111111111001000 !
b11101111111111111111111111001000 $
b11101111111111111111111111001000 ;
b11101111111111111111111111001000 U
b11101111111111111111111111001000 /
b11101111111111111111111111001000 ?
11
b11111111111111111111111111101000 &
b11111111111111111111111111101000 =
b1000 .
b1000 G
b1000 V
b1 )
b1 A
b1 P
b1 Z
b1111 (
b1111 E
b1111 X
b100011 0
b100011 C
b100011 \
b100011 D
0-
17
b0 ,
b0 M
b11111111111111111111111111101000 3
b11111111111111111111111111101000 ]
b11111110111101000010010000100011 2
b11111110111101000010010000100011 H
b11111110111101000010010000100011 T
b11111110111101000010010000100011 [
b1000011100 R
b1000011100 :
1"
#310
0"
#315
b1111000100 N
b1 !
b1 $
b1 ;
b1 U
b11101111111111111111111111000100 /
b11101111111111111111111111000100 ?
1-
b10 ,
b10 M
b11111111111111111111111111100100 &
b11111111111111111111111111100100 =
b1111 .
b1111 G
b1111 V
b0 )
b0 A
b0 P
b0 Z
b100 (
b100 E
b100 X
b11 0
b11 C
b11 \
b11 D
17
01
b11111111111111111111111111100100 3
b11111111111111111111111111100100 ]
b11111110010001000010011110000011 2
b11111110010001000010011110000011 H
b11111110010001000010011110000011 T
b11111110010001000010011110000011 [
b1000100000 R
b1000100000 :
1"
#320
0"
#325
b1101100011011000110010101001000 4
b1101100011011000110010101001000 O
b10 N
b1 '
b1 <
b10 !
b10 $
b10 ;
b10 U
b10 /
b10 ?
b1 +
b1 B
b1 Y
b1111 *
b1111 F
b1111 W
b1 &
b1 =
b1001110000 )
b1001110000 A
b1001110000 P
b1001110000 Z
b1 (
b1 E
b1 X
b10011 0
b10011 C
b10011 \
b10011 D
b0 J
b0 I
1-
17
b0 ,
b0 M
b1 3
b1 ]
b101111000011110010011 2
b101111000011110010011 H
b101111000011110010011 T
b101111000011110010011 [
b1000100100 R
b1000100100 :
1"
#330
0"
#335
b1 4
b1 O
b1000 *
b1000 F
b1000 W
11
b11111111111111111111111111100100 &
b11111111111111111111111111100100 =
b100 .
b100 G
b100 V
b10 )
b10 A
b10 P
b10 Z
b1111 (
b1111 E
b1111 X
b100011 0
b100011 C
b100011 \
b100011 D
b10 J
b1111111 I
0-
17
b11111111111111111111111111100100 3
b11111111111111111111111111100100 ]
b11111110111101000010001000100011 2
b11111110111101000010001000100011 H
b11111110111101000010001000100011 T
b11111110111101000010001000100011 [
b1111000100 N
b11101111111111111111111111000100 !
b11101111111111111111111111000100 $
b11101111111111111111111111000100 ;
b11101111111111111111111111000100 U
b11101111111111111111111111000100 /
b11101111111111111111111111000100 ?
b11101111111111111111111111100000 '
b11101111111111111111111111100000 <
b1000101000 R
b11101111111111111111111111100000 +
b11101111111111111111111111100000 B
b11101111111111111111111111100000 Y
b1000101000 :
1"
#340
0"
#345
b1111000100 N
b10 !
b10 $
b10 ;
b10 U
b11101111111111111111111111000100 /
b11101111111111111111111111000100 ?
1-
b10 ,
b10 M
b11111111111111111111111111100100 &
b11111111111111111111111111100100 =
b1110 .
b1110 G
b1110 V
b0 )
b0 A
b0 P
b0 Z
b100 (
b100 E
b100 X
b11 0
b11 C
b11 \
b11 D
17
01
b11111111111111111111111111100100 3
b11111111111111111111111111100100 ]
b11111110010001000010011100000011 2
b11111110010001000010011100000011 H
b11111110010001000010011100000011 T
b11111110010001000010011100000011 [
b1000101100 R
b10 4
b10 O
b1000101100 :
1"
#350
0"
